-----
2
200
200
15
10
450
500
-10
7
-----
3
200
200
15
10
450
500
-10
7
350
750
-13
5
-----
4
200
200
15
10
450
500
-10
7
350
750
-13
5
600
400
3
5
-----
2
200
200
15
10
450
500
-10
7
-----
3
200
200
15
10
450
500
-10
7
350
750
-13
5
-----
2
200
200
15
10
450
500
-10
7
-----
3
200
200
15
10
450
500
-10
7
350
750
-13
5
-----
2
200
200
15
10
450
500
-10
7
-----
3
200
200
15
10
450
500
-10
7
350
750
-13
5
+++++

